# omega x = 30
-1.0	-0.217
-0.9	-0.2182
-0.8	-0.2182
-0.7	-0.223
-0.6	-0.2194
-0.5	-0.2122
-0.4	-0.1954
-0.3	-0.1594
-0.2	-0.1126
-0.1	-0.0502
0.00	0.0146
0.10	0.0747
0.20	0.1263
0.30	0.1695
0.40	0.1947
0.50	0.2055
0.60	0.2055
0.70	0.2031
0.80	0.1995
0.90	0.1995
1.00	0.2007
