# p x = 14
-1.0	0.1892
-0.9	0.189
-0.8	0.1885
-0.7	0.1875
-0.6	0.1858
-0.5	0.1831
-0.4	0.1789
-0.3	0.1746
-0.2	0.1696
-0.1	0.1648
0.00	0.1611
0.10	0.1587
0.20	0.1574
0.30	0.1566
0.40	0.1563
0.50	0.1561
0.60	0.1558
0.70	0.1558
0.80	0.1558
0.90	0.1558
1.00	0.1566
